Psych 251 PS4: Simulation + Analysis
…
Part 1: ggplot practice

This part is a warmup, it should be relatively straightforward ggplot2 practice.

Load data from Frank, Vul, Saxe (2011, Infancy), a study in which we measured infants looking to hands in moving scenes. There were infants from 3 months all the way to about two years, and there were two movie conditions (Faces_Medium, in which kids played on a white background, and Faces_Plus, in which the backgrounds were more complex and the people in the videos were both kids and adults). An eye-tracker measured childrens attention to faces. This version of the dataset only gives two conditions and only shows the amount of looking at hands (other variables were measured as well).

library(tidyverse)
fvs <- read_csv("data/FVS2011-hands.csv")

First, use ggplot to plot a histogram of the ages of children in the study. NOTE: this is a repeated measures design, so you cant just take a histogram of every measurement.

fvs %>%
  count(subid)

## # A tibble: 119 x 2
##    subid     n
##    <dbl> <int>
##  1     1     2
##  2     2     2
##  3     3     2
##  4     4     2
##  5     5     1
##  6     6     2
##  7     7     2
##  8     8     2
##  9     9     2
## 10    10     2
## #  with 109 more rows
…
